thesaurus,keyword,type
LTER controlled vocabulary,photosynthesis,theme
LTER controlled vocabulary,phaeophytin,theme
LTER controlled vocabulary,chlorophyll,theme
LTER controlled vocabulary,chlorophyll a,theme
LTER controlled vocabulary,algae,theme
LTER controlled vocabulary,deserts,theme
LTER controlled vocabulary,floods,theme
LTER controlled vocabulary,aquatic ecosystems,theme
LTER controlled vocabulary,disturbance,theme
LTER controlled vocabulary,disturbance patterns,theme
LTER controlled vocabulary,disturbance properties,theme
LTER controlled vocabulary,disturbances,theme
LTER controlled vocabulary,drainage,theme
LTER controlled vocabulary,droughts,theme
LTER controlled vocabulary,streams,theme
LTER core areas,population studies,theme
LTER core areas,disturbance patterns,theme
LTER core areas,water and fluxes,theme
Creator Defined Keyword Set,sycamore creek,place
Creator Defined Keyword Set,sonoran desert,place
Creator Defined Keyword Set,LTREB,place
CAPLTER Keyword Set List,cap lter,theme
CAPLTER Keyword Set List,cap,theme
CAPLTER Keyword Set List,caplter,theme
CAPLTER Keyword Set List,central arizona phoenix long term ecological research,theme
CAPLTER Keyword Set List,arizona,place
CAPLTER Keyword Set List,az,place
CAPLTER Keyword Set List,arid land,theme
